<svg id="grid" xmlns="http://www.w3.org/2000/svg" width="11.34" height="11.34" viewBox="0 0 11.34 11.34">
  <rect id="Rectangle" width="4.41" height="4.41" fill="#727272"/>
  <rect id="Rectangle-2" data-name="Rectangle" width="4.41" height="4.41" transform="translate(6.93)" fill="#727272"/>
  <rect id="Rectangle-3" data-name="Rectangle" width="4.41" height="4.41" transform="translate(6.93 6.93)" fill="#727272"/>
  <rect id="Rectangle-4" data-name="Rectangle" width="4.41" height="4.41" transform="translate(0 6.93)" fill="#727272"/>
</svg>
