<?xml version="1.0" encoding="UTF-8"?>
<svg width="813px" height="817px" viewBox="0 0 813 817" version="1.1" xmlns="http://www.w3.org/2000/svg" xmlns:xlink="http://www.w3.org/1999/xlink">
    <!-- Generator: Sketch 54.1 (76490) - https://sketchapp.com -->
    <title>BG</title>
    <desc>Created with Sketch.</desc>
    <defs>
        <linearGradient x1="50%" y1="0%" x2="50%" y2="100%" id="linearGradient-1">
            <stop stop-color="#F2F2F2" offset="0%"></stop>
            <stop stop-color="#FAFAFA" offset="100%"></stop>
        </linearGradient>
        <linearGradient x1="50%" y1="0%" x2="50%" y2="100%" id="linearGradient-2">
            <stop stop-color="#F2F2F2" offset="0%"></stop>
            <stop stop-color="#FAFAFA" offset="100%"></stop>
        </linearGradient>
        <linearGradient x1="50%" y1="0%" x2="50%" y2="100%" id="linearGradient-3">
            <stop stop-color="#F2F2F2" offset="0%"></stop>
            <stop stop-color="#FAFAFA" offset="100%"></stop>
        </linearGradient>
    </defs>
    <g id="Website-design" stroke="none" stroke-width="1" fill="none" fill-rule="evenodd" opacity="0.5">
        <g id="404" transform="translate(-311.000000, -116.000000)">
            <g id="BG" transform="translate(311.000000, 116.000000)">
                <ellipse id="Oval-Copy-4" stroke="url(#linearGradient-1)" stroke-width="5" fill="#FFFFFF" cx="410" cy="409.024876" rx="400" ry="404.975124"></ellipse>
                <ellipse id="Oval-Copy-2" stroke="url(#linearGradient-2)" stroke-width="3" fill="#FFFFFF" cx="409.5" cy="408.518657" rx="300.5" ry="304.237562"></ellipse>
                <ellipse id="Oval" stroke="url(#linearGradient-3)" fill="#FFFFFF" cx="409" cy="409.024876" rx="200" ry="202.487562"></ellipse>
                <ellipse id="Oval" fill="#F2F2F2" cx="777" cy="249.059701" rx="10" ry="10.1243781"></ellipse>
                <ellipse id="Oval-Copy-6" fill="#F2F2F2" cx="226" cy="329.042289" rx="10" ry="10.1243781"></ellipse>
                <ellipse id="Oval-Copy-7" fill="#F2F2F2" cx="10" cy="429.273632" rx="10" ry="10.1243781"></ellipse>
                <ellipse id="Oval-Copy-8" fill="#F2F2F2" cx="693" cy="307.781095" rx="10" ry="10.1243781"></ellipse>
                <ellipse id="Oval-Copy" fill="#F2F2F2" cx="539" cy="134.654229" rx="30" ry="30.3731343"></ellipse>
                <ellipse id="Oval-Copy-5" fill="#F2F2F2" cx="299" cy="20.2487562" rx="20" ry="20.2487562"></ellipse>
                <ellipse id="Oval-Copy-3" fill="#F2F2F2" cx="170" cy="221.723881" rx="15" ry="15.1865672"></ellipse>
            </g>
        </g>
    </g>
</svg>