<svg xmlns="http://www.w3.org/2000/svg" width="36.828" height="36.828" viewBox="0 0 36.828 36.828">
  <g id="send" transform="translate(2 2.828)">
    <path id="Path" d="M17.6,0,0,17.6" transform="translate(14.4)" fill="none" stroke="#fff" stroke-linecap="round" stroke-linejoin="round" stroke-miterlimit="10" stroke-width="4"/>
    <path id="Path-2" data-name="Path" d="M32,0,20.8,32,14.4,17.6,0,11.2,32,0Z" fill="none" stroke="#fff" stroke-linecap="round" stroke-linejoin="round" stroke-miterlimit="10" stroke-width="4"/>
  </g>
</svg>
