<svg xmlns="http://www.w3.org/2000/svg" width="33" height="32.333" viewBox="0 0 33 32.333">
  <g id="upload-icon" transform="translate(2 1.333)">
    <path id="Path" d="M29,0V6.444a3.222,3.222,0,0,1-3.222,3.222H3.222A3.222,3.222,0,0,1,0,6.444V0" transform="translate(0 19.333)" fill="none" stroke="#fff" stroke-linecap="round" stroke-linejoin="round" stroke-miterlimit="10" stroke-width="4"/>
    <g id="Group_6" data-name="Group 6" transform="translate(6.444 20)">
      <path id="Path-2" data-name="Path" d="M16.111-8.056,8.056,0,0-8.056" transform="translate(0 0)" fill="none" stroke="#fff" stroke-linecap="round" stroke-linejoin="round" stroke-miterlimit="10" stroke-width="4"/>
      <path id="Path-3" data-name="Path" d="M.806,0V-19.333" transform="translate(7.25 0)" fill="none" stroke="#fff" stroke-linecap="round" stroke-linejoin="round" stroke-miterlimit="10" stroke-width="4"/>
    </g>
  </g>
</svg>
